[
  {
    "id": "development",
    "name": "Development"
  },
  {
    "id": "devopsAndAdministration",
    "name": "DevOps and System Administration",
    "color": "#f57d4a"
  },
  {
    "id": "management",
    "name": "Management",
    "color": {
      "light": "#555555",
      "dark": "#bbbbbb"
    }
  }
]