[
  {
    "id": "prj0",
    "name": "Проект 0",
    "links": [
      {
        "type": "common",
        "url": "https://github.com"
      },
      {
        "type": "github",
        "path": "/github"
      }
    ],
    "avatar": {
      "src": {
        "light": "/resources/ru/media/github-logo-dark.svg",
        "dark": "/resources/ru/media/github-logo.svg"
      },
      "alt": "Github Avatar"
    }
  },
  {
    "id": "prj1",
    "name": "Проект 1"
  },
  {
    "id": "prj2",
    "name": "Проект 2",
    "links": [
      {
        "type": "gitlab",
        "path": "/gitlab-org/gitlab"
      }
    ],
    "avatar": {
      "src": "/resources/ru/media/github-logo.svg",
      "alt": "Gitlab Avatar",
      "shape": "rectangular"
    }
  }
]