{
  "mainBundle": "en",
  "bundleAddons": {
    "activities": [],
    "cv": [],
    "positions": ["ru"],
    "projects": ["ru"],
    "providers": ["ru"],
    "skills": [],
    "subactivities": ["ru"],
    "user": ["ru"],
    "tags": ["ru"],
    "specializations": ["ru"]
  }
}